%YAML 1.1
%TAG !u! tag:unity3d.com,2011:
--- !u!1001 &100100000
Prefab:
  m_ObjectHideFlags: 1
  serializedVersion: 2
  m_Modification:
    m_TransformParent: {fileID: 0}
    m_Modifications: []
    m_RemovedComponents: []
  m_SourcePrefab: {fileID: 0}
  m_RootGameObject: {fileID: 1701367819566508}
  m_IsPrefabAsset: 1
--- !u!1 &1701367819566508
GameObject:
  m_ObjectHideFlags: 0
  m_CorrespondingSourceObject: {fileID: 0}
  m_PrefabInternal: {fileID: 100100000}
  serializedVersion: 6
  m_Component:
  - component: {fileID: 4080128597394686}
  - component: {fileID: 114495439862631524}
  m_Layer: 0
  m_Name: Crowd
  m_TagString: Untagged
  m_Icon: {fileID: 0}
  m_NavMeshLayer: 0
  m_StaticEditorFlags: 0
  m_IsActive: 1
--- !u!4 &4080128597394686
Transform:
  m_ObjectHideFlags: 1
  m_CorrespondingSourceObject: {fileID: 0}
  m_PrefabInternal: {fileID: 100100000}
  m_GameObject: {fileID: 1701367819566508}
  m_LocalRotation: {x: -0, y: -0, z: -0, w: 1}
  m_LocalPosition: {x: 0.713717, y: 0.91898805, z: 10.816}
  m_LocalScale: {x: 1, y: 1, z: 1}
  m_Children: []
  m_Father: {fileID: 0}
  m_RootOrder: 0
  m_LocalEulerAnglesHint: {x: 0, y: 0, z: 0}
--- !u!114 &114495439862631524
MonoBehaviour:
  m_ObjectHideFlags: 1
  m_CorrespondingSourceObject: {fileID: 0}
  m_PrefabInternal: {fileID: 100100000}
  m_GameObject: {fileID: 1701367819566508}
  m_Enabled: 1
  m_EditorHideFlags: 0
  m_Script: {fileID: 11500000, guid: 45b0b6006b59b1443ad3a104b829402f, type: 3}
  m_Name: 
  m_EditorClassIdentifier: 
  targets:
  - {fileID: 0}
  - {fileID: 0}
  seatParent: {fileID: 0}
  peoplePrefabs:
  - {fileID: 1806965544857772, guid: 2f6bf9affb0db7c45b24109bccee3a4a, type: 2}
  - {fileID: 1482354321951210, guid: 314c6f5d2eebb94408610d6e27c6202e, type: 2}
  - {fileID: 1540592129740922, guid: ee427d82f7b03604f874a70fcb91b85e, type: 2}
  - {fileID: 1570646330848158, guid: 0a9cc0186ced29d4d812544d42b54fd0, type: 2}
  - {fileID: 1485136832474874, guid: 7984aad3fe3e05c4f909d2a37b6df256, type: 2}
  - {fileID: 1806758723229132, guid: 203745a2ef9cbe34bb89c721f23ca0af, type: 2}
  - {fileID: 1183958628364900, guid: 7264265a542ecc24b8d794a4c0e88f41, type: 2}
  - {fileID: 1020055801965874, guid: 435a404738d956b47a898f68acb0f609, type: 2}
  - {fileID: 1516081727434266, guid: 69302ad2ea4e0bc43a2aa44b21f43616, type: 2}
  - {fileID: 1849751634128494, guid: 14c5501a1068ef843916adcd3d760ec1, type: 2}
  - {fileID: 1097580583691756, guid: 48b93930ea481294795ae46cb6c79e16, type: 2}
  - {fileID: 1640783373322498, guid: 78ba6d6da9be97444a300c78cc6b1fb5, type: 2}
  - {fileID: 1092357215088918, guid: d65a3fdc4a9e513458a6aa66f55785dc, type: 2}
  - {fileID: 1460976531542750, guid: 5506c4c823d45ca4bb55b591d6ab0b67, type: 2}
  - {fileID: 1555649644167170, guid: e048d49fbcfbaa9418a22b9236452711, type: 2}
  - {fileID: 1349248535950092, guid: 3775a9be53d36314ca8365670ad2d75b, type: 2}
  - {fileID: 1888496607771292, guid: a5d6f0f4b922ab44e83d7d01b68d265d, type: 2}
  - {fileID: 1942057414611480, guid: 3d34660d49b3cc34ebe6d61bce8a6bf2, type: 2}
  - {fileID: 1715103096819412, guid: a8d4172406efb5c44abc2623ba0df631, type: 2}
  - {fileID: 1649813526172272, guid: 189f79f4349e41a4b9edc754a9a67325, type: 2}
  Offset: {x: 0, y: 0, z: 0}
  RotationOffset: {x: 0, y: 1, z: 0, w: -0.00000004371139}
